…
```sql
D select * from read_parquet('gs://<bucket_name>/parquet/optimized/esa_worldcover_10m_v200/**/**.parquet', hive_partitioning = true) where h3_res3 IN (select h3_res3 from target_h3);
  0% ▕                                                            ▏ ^CRun Time (s): real 82.328 user 43.695678 sys 3.850381
INTERRUPT Error: Interrupted!
```


However, the same query runs well when the values are manually introduced in the `WHERE IN` statement clause.


```sql
select * from read_parquet('gs://<bucket_name>/parquet/optimized/esa_worldcover_10m_v200/**/**.parquet', hive_partitioning = true) where h3_res3 IN (592952464647389183, 592949509709889535, 592952602086342655, 591890611292864511);
100% ▕████████████████████████████████████████████████████████████▏
┌────────────────────┬────────────────────┬───────┐
│      h3_res3       │      h3_res11      │ value │
│       int64        │       int64        │ uint8 │
├────────────────────┼────────────────────┼───────┤
│ 591890611292864511 │ 636926579654101055 │    30 │
│ 591890611292864511 │ 636926579654101311 │    30 │
│ 591890611292864511 │ 636926579654101375 │    30 │
│ 591890611292864511 │ 636926579654115455 │    30 │
│ 591890611292864511 │ 636926579654115519 │    30 │
│ 591890611292864511 │ 636926579654115583 │    30 │
│ 591890611292864511 │ 636926579654115711 │    30 │
│ 591890611292864511 │ 636926579654115903 │    30 │
│ 591890611292864511 │ 636926579654115967 │    30 │
│ 591890611292864511 │ 636926579654116031 │    30 │
│ 591890611292864511 │ 636926579654116095 │    30 │
│ 591890611292864511 │ 636926579654116159 │    30 │
│ 591890611292864511 │ 636926579654116223 │    30 │
│ 591890611292864511 │ 636926579654116287 │    30 │
│ 591890611292864511 │ 636926579654116991 │    30 │
│ 591890611292864511 │ 636926579654117247 │    30 │
│ 591890611292864511 │ 636926579654117439 │    30 │
│ 591890611292864511 │ 636926579654117503 │    30 │
│ 591890611292864511 │ 636926579654117567 │    30 │
│ 591890611292864511 │ 636926579654117631 │    30 │
│          ·         │          ·         │     · │
│          ·         │          ·         │     · │
│          ·         │          ·         │     · │
│ 591890611292864511 │ 636926589159565439 │    80 │
│ 591890611292864511 │ 636926589159565503 │    80 │
│ 591890611292864511 │ 636926589159565567 │    80 │
│ 591890611292864511 │ 636926589159565631 │    80 │
│ 591890611292864511 │ 636926589159565695 │    80 │
│ 591890611292864511 │ 636926589159565759 │    80 │
│ 591890611292864511 │ 636926589159565887 │    80 │
│ 591890611292864511 │ 636926589159565951 │    80 │
│ 591890611292864511 │ 636926589159566015 │    80 │
│ 591890611292864511 │ 636926589159566079 │    80 │
│ 591890611292864511 │ 636926589159566143 │    80 │
│ 591890611292864511 │ 636926589159566207 │    80 │
│ 591890611292864511 │ 636926589159566271 │    80 │
│ 591890611292864511 │ 636926589159566399 │    80 │
│ 591890611292864511 │ 636926589159566463 │    80 │
│ 591890611292864511 │ 636926589159566527 │    80 │
│ 591890611292864511 │ 636926589159566591 │    80 │
│ 591890611292864511 │ 636926589159566655 │    80 │
│ 591890611292864511 │ 636926589159566719 │    80 │
│ 591890611292864511 │ 636926589159566783 │    80 │
├────────────────────┴────────────────────┴───────┤
│ 92256369 rows (40 shown)              3 columns │
└─────────────────────────────────────────────────┘
…
