…
When using the read_csv function to read a locally downloaded tpch sf10 file, in parallel mode(`parallel = true`), sometimes some lines are lost.

### To Reproduce

The test file:
[customer.4.csv.zip](https://github.com/user-attachments/files/16276401/customer.4.csv.zip)

Result of running in no-parallel mode:
```
D select * from read_csv('./customer.4.csv',  header = false, delim='|', names = ['c_custkey','c_name','c_address','c_nationkey','c_phone','c_acctbal','c_mktsegment','c_comment'], columns = {'c_custkey': 'BIGINT', 'c_name': 'VARCHAR', 'c_address': 'VARCHAR', 'c_nationkey': 'INTEGER', 'c_phone': 'VARCHAR', 'c_acctbal': 'DECIMAL(15, 2)', 'c_mktsegment': 'VARCHAR', 'c_comment': 'VARCHAR'}, parallel=false);
┌───────────┬────────────────────┬──────────────────────┬─────────────┬─────────────────┬───────────────┬──────────────┬──────────────────────────────────────────────────────────┐
│ c_custkey │       c_name       │      c_address       │ c_nationkey │     c_phone     │   c_acctbal   │ c_mktsegment │                        c_comment                         │
│   int64   │      varchar       │       varchar        │    int32    │     varchar     │ decimal(15,2) │   varchar    │                         varchar                          │
├───────────┼────────────────────┼──────────────────────┼─────────────┼─────────────────┼───────────────┼──────────────┼──────────────────────────────────────────────────────────┤
│    750001 │ Customer#000750001 │ ocIz 2S9MsEyfkL      │           6 │ 16-182-876-9496 │       4522.76 │ FURNITURE    │ dolites alongside of the furiously pending theodolites…  │
│    750002 │ Customer#000750002 │ Y9eOW Ena8pVx        │          15 │ 25-241-686-3974 │       1969.87 │ BUILDING     │ ide of the slyly express hockey players. slyly ironic …  │
│    750003 │ Customer#000750003 │ cte0X8NikvycBgab3x…  │           5 │ 15-756-536-2351 │       6508.12 │ HOUSEHOLD    │  carefully express excuses sublate slyly carefully iro…  │
│    750004 │ Customer#000750004 │ 9288MGCCQc           │          18 │ 28-982-226-1141 │       7031.80 │ MACHINERY    │ iously final excuses boost. furiously special deposits…  │
│    750005 │ Customer#000750005 │ cvs AOe,P5sT29ujTK…  │          24 │ 34-831-351-5508 │       8565.24 │ BUILDING     │ he bold dolphins cajole quickly furiously final accoun…  │
│    750006 │ Customer#000750006 │ ,7Z2aq,u8iszp2N      │          12 │ 22-148-676-1461 │       8039.63 │ BUILDING     │ ggle slyly slyly unusual asymptotes. blithely unusual …  │
│    750007 │ Customer#000750007 │ mBIxJhPIdnp5QVit     │          20 │ 30-853-435-8602 │       7104.39 │ BUILDING     │ sits. even braids detect blithely. furiously regular i…  │
│    750008 │ Customer#000750008 │ vMPhAM9HUGDUSUVWHY…  │          20 │ 30-986-100-6168 │       7532.53 │ MACHINERY    │ ans. silent, pending accounts are bold packages. fluff…  │
│    750009 │ Customer#000750009 │ 9 Ke3xSSHk,          │           3 │ 13-703-750-2774 │       9229.85 │ MACHINERY    │  special pinto beans. slyly regular deposit              │
│    750010 │ Customer#000750010 │ gumX0pVvMDi8sOuTF1…  │          13 │ 23-106-230-3221 │       2104.89 │ HOUSEHOLD    │ uses during the furiously unusual deposits are careful…  │
│    750011 │ Customer#000750011 │ 7YZ2k6vwyrSl413qx6…  │          22 │ 32-737-684-1753 │       9890.53 │ FURNITURE    │ lyly pending ideas. bold, final requests gr              │
│    750012 │ Customer#000750012 │ 7KNAcwFIJoEALpjcjE…  │          22 │ 32-927-387-3029 │       7248.40 │ FURNITURE    │ he even, enticing deposits. ironic instructions across…  │
│    750013 │ Customer#000750013 │ vKk6BtYZL6glVAENJx…  │          16 │ 26-870-534-8861 │       7941.01 │ BUILDING     │ ial instructions haggle slyly. final deposits use care…  │
│    750014 │ Customer#000750014 │ GT,9f00VCawikLQcU3…  │          17 │ 27-181-849-3103 │       -332.72 │ BUILDING     │ telets. blithely final requests haggle quickly. closel…  │
│    750015 │ Customer#000750015 │ FO7MylrbUhV5NCZeXF…  │           6 │ 16-773-416-4595 │       4831.49 │ HOUSEHOLD    │ are deposits. packages haggle busily special warth       │
│    750016 │ Customer#000750016 │ 4C89rxX6PWyQYbM2iN…  │           1 │ 11-855-942-5002 │       9805.91 │ AUTOMOBILE   │ s wake even deposits. furiously pending accounts sleep…  │
│    750017 │ Customer#000750017 │ Xz,oDQIOrWEH5F3U3a…  │          13 │ 23-656-232-2010 │       3977.22 │ HOUSEHOLD    │ posits doze slyly. deposits play quickl                  │
│    750018 │ Customer#000750018 │ Kqi LH9Dw9Je4gnsZO…  │          10 │ 20-704-161-9994 │       7149.71 │ BUILDING     │ about the regular packages. unusual theodolite           │
│    750019 │ Customer#000750019 │ 6PIfDDv88ST          │          14 │ 24-501-337-3430 │       -862.69 │ BUILDING     │ unts sleep slyly furiously quick instructions. bold de…  │
│    750020 │ Customer#000750020 │ 3on7Dy7EbBtUQqW,x0…  │           3 │ 13-645-655-2278 │       7626.89 │ MACHINERY    │ ultipliers. blithely silent accounts wake? final, idle…  │
│       ·   │         ·          │       ·              │           · │        ·        │          ·    │     ·        │                            ·                             │
│       ·   │         ·          │       ·              │           · │        ·        │          ·    │     ·        │                            ·                             │
│       ·   │         ·          │       ·              │           · │        ·        │          ·    │     ·        │                            ·                             │
│    999981 │ Customer#000999981 │ 9eutWbkjGTH5m        │           4 │ 14-848-451-9506 │       7953.74 │ FURNITURE    │ olites. carefully bold asymptotes thrash quickly. iron…  │
│    999982 │ Customer#000999982 │ sz ANzNlyDdlc8ixCg…  │          19 │ 29-736-274-3793 │       4478.57 │ AUTOMOBILE   │ sts. furiously unusual warhorses about the ruthlessly …  │
│    999983 │ Customer#000999983 │ zbfrs38uKPsMgguyCz…  │           2 │ 12-387-349-8894 │       7309.38 │ HOUSEHOLD    │ . slyly regular packages hang furiously around the reg…  │
│    999984 │ Customer#000999984 │ Fe4XXlM V18,heYT4m…  │          18 │ 28-918-729-6761 │       9798.00 │ BUILDING     │  the regular, even multipliers. bold requests haggle. …  │
│    999985 │ Customer#000999985 │ PvTAz7jCnMYM8hLBBO…  │           5 │ 15-198-780-8836 │       3082.83 │ FURNITURE    │ refully even theodolites. quickly regular platelets al…  │
│    999986 │ Customer#000999986 │ 1,9tDkK2E0d          │           3 │ 13-541-887-2760 │       1178.81 │ FURNITURE    │  regular pinto beans. ironic,                            │
│    999987 │ Customer#000999987 │ fVI3FQ8ldRVZZEB      │           2 │ 12-782-312-1799 │       -872.56 │ HOUSEHOLD    │ s across the busy, express asymptotes might nag s        │
│    999988 │ Customer#000999988 │ Pp37em0JeuQ8pjGyDq…  │           1 │ 11-684-327-2906 │       6821.73 │ AUTOMOBILE   │ y special accounts detect blithely-- furiously quick a…  │
│    999989 │ Customer#000999989 │ mwrBAYS71focOVKEhR…  │          17 │ 27-975-600-5320 │       8906.00 │ FURNITURE    │ ts cajole slyly along the final platelets. special dep…  │
│    999990 │ Customer#000999990 │ z,bwOIBsI9K0PNY8NH…  │           3 │ 13-125-229-3250 │       4171.01 │ AUTOMOBILE   │ r pinto beans. furiously final requests boost at the f…  │
│    999991 │ Customer#000999991 │ AwaVWS8KtCTIX5NBLN…  │           2 │ 12-291-581-6412 │       8180.64 │ BUILDING     │ boldly final packages. accounts haggle carefully among…  │
│    999992 │ Customer#000999992 │ O0cD,1dzFiC I2 71B…  │          19 │ 29-698-569-2471 │       1029.41 │ AUTOMOBILE   │ nt requests. bold, ironic platelets wake carefully fin…  │
│    999993 │ Customer#000999993 │  WA2hj7UR,,aEgDHQ2…  │          20 │ 30-466-997-7763 │       7280.56 │ FURNITURE    │ as maintain along the slyly unusual instructions. expr…  │
│    999994 │ Customer#000999994 │ ADIbXr1UXCP          │           7 │ 17-225-458-5492 │       9451.18 │ BUILDING     │ p furiously? blithely special excuses use q              │
│    999995 │ Customer#000999995 │ DkonGLBdP8KiSw7M0n…  │          21 │ 31-676-126-3490 │       4073.85 │ MACHINERY    │ grate slyly. carefully even pla                          │
│    999996 │ Customer#000999996 │ VHzpweKyJnCKq ,ABa…  │           2 │ 12-612-481-1546 │       3249.83 │ HOUSEHOLD    │ atterns sublate furiously special ideas. furiously bol…  │
│    999997 │ Customer#000999997 │ 1jzKN7dkuARNY        │          13 │ 23-363-150-9331 │       2895.95 │ BUILDING     │ kages cajole furiously against the slowly regular acco…  │
│    999998 │ Customer#000999998 │ 66PbDOwGtRxtMdHysYS  │          18 │ 28-958-223-7036 │       6266.14 │ HOUSEHOLD    │ structions boost regular instruct                        │
│    999999 │ Customer#000999999 │ 44 qnTvzP0xE5mElCm…  │          22 │ 32-776-400-1528 │       -909.54 │ AUTOMOBILE   │ pending waters unwind blithely unusual frays. foxes da…  │
│   1000000 │ Customer#001000000 │ k3SvF5d6Nkp3jWKYQs…  │           8 │ 18-276-411-3390 │       1212.41 │ BUILDING     │ sual tithes boost. furiously unusual excuses wake furi…  │
├───────────┴────────────────────┴──────────────────────┴─────────────┴─────────────────┴───────────────┴──────────────┴──────────────────────────────────────────────────────────┤
│ 250000 rows (40 shown)                                                                                                                                                8 columns │
└─────────────────────────────────────────────────────────────────────────────────────────────────────────────────────────────────────────────────────────────────────────────────┘
```
Result of running in parallel mode:
```
D select * from read_csv('./customer.4.csv',  header = false, delim='|', names = ['c_custkey','c_name','c_address','c_nationkey','c_phone','c_acctbal','c_mktsegment','c_comment'], columns = {'c_custkey': 'BIGINT', 'c_name': 'VARCHAR', 'c_address': 'VARCHAR', 'c_nationkey': 'INTEGER', 'c_phone': 'VARCHAR', 'c_acctbal': 'DECIMAL(15, 2)', 'c_mktsegment': 'VARCHAR', 'c_comment': 'VARCHAR'}, parallel=true);
┌───────────┬────────────────────┬──────────────────────┬─────────────┬─────────────────┬───────────────┬──────────────┬──────────────────────────────────────────────────────────┐
│ c_custkey │       c_name       │      c_address       │ c_nationkey │     c_phone     │   c_acctbal   │ c_mktsegment │                        c_comment                         │
│   int64   │      varchar       │       varchar        │    int32    │     varchar     │ decimal(15,2) │   varchar    │                         varchar                          │
├───────────┼────────────────────┼──────────────────────┼─────────────┼─────────────────┼───────────────┼──────────────┼──────────────────────────────────────────────────────────┤
│    750001 │ Customer#000750001 │ ocIz 2S9MsEyfkL      │           6 │ 16-182-876-9496 │       4522.76 │ FURNITURE    │ dolites alongside of the furiously pending theodolites…  │
│    750002 │ Customer#000750002 │ Y9eOW Ena8pVx        │          15 │ 25-241-686-3974 │       1969.87 │ BUILDING     │ ide of the slyly express hockey players. slyly ironic …  │
│    750003 │ Customer#000750003 │ cte0X8NikvycBgab3x…  │           5 │ 15-756-536-2351 │       6508.12 │ HOUSEHOLD    │  carefully express excuses sublate slyly carefully iro…  │
│    750004 │ Customer#000750004 │ 9288MGCCQc           │          18 │ 28-982-226-1141 │       7031.80 │ MACHINERY    │ iously final excuses boost. furiously special deposits…  │
│    750005 │ Customer#000750005 │ cvs AOe,P5sT29ujTK…  │          24 │ 34-831-351-5508 │       8565.24 │ BUILDING     │ he bold dolphins cajole quickly furiously final accoun…  │
│    750006 │ Customer#000750006 │ ,7Z2aq,u8iszp2N      │          12 │ 22-148-676-1461 │       8039.63 │ BUILDING     │ ggle slyly slyly unusual asymptotes. blithely unusual …  │
│    750007 │ Customer#000750007 │ mBIxJhPIdnp5QVit     │          20 │ 30-853-435-8602 │       7104.39 │ BUILDING     │ sits. even braids detect blithely. furiously regular i…  │
│    750008 │ Customer#000750008 │ vMPhAM9HUGDUSUVWHY…  │          20 │ 30-986-100-6168 │       7532.53 │ MACHINERY    │ ans. silent, pending accounts are bold packages. fluff…  │
│    750009 │ Customer#000750009 │ 9 Ke3xSSHk,          │           3 │ 13-703-750-2774 │       9229.85 │ MACHINERY    │  special pinto beans. slyly regular deposit              │
│    750010 │ Customer#000750010 │ gumX0pVvMDi8sOuTF1…  │          13 │ 23-106-230-3221 │       2104.89 │ HOUSEHOLD    │ uses during the furiously unusual deposits are careful…  │
│    750011 │ Customer#000750011 │ 7YZ2k6vwyrSl413qx6…  │          22 │ 32-737-684-1753 │       9890.53 │ FURNITURE    │ lyly pending ideas. bold, final requests gr              │
│    750012 │ Customer#000750012 │ 7KNAcwFIJoEALpjcjE…  │          22 │ 32-927-387-3029 │       7248.40 │ FURNITURE    │ he even, enticing deposits. ironic instructions across…  │
│    750013 │ Customer#000750013 │ vKk6BtYZL6glVAENJx…  │          16 │ 26-870-534-8861 │       7941.01 │ BUILDING     │ ial instructions haggle slyly. final deposits use care…  │
│    750014 │ Customer#000750014 │ GT,9f00VCawikLQcU3…  │          17 │ 27-181-849-3103 │       -332.72 │ BUILDING     │ telets. blithely final requests haggle quickly. closel…  │
│    750015 │ Customer#000750015 │ FO7MylrbUhV5NCZeXF…  │           6 │ 16-773-416-4595 │       4831.49 │ HOUSEHOLD    │ are deposits. packages haggle busily special warth       │
│    750016 │ Customer#000750016 │ 4C89rxX6PWyQYbM2iN…  │           1 │ 11-855-942-5002 │       9805.91 │ AUTOMOBILE   │ s wake even deposits. furiously pending accounts sleep…  │
│    750017 │ Customer#000750017 │ Xz,oDQIOrWEH5F3U3a…  │          13 │ 23-656-232-2010 │       3977.22 │ HOUSEHOLD    │ posits doze slyly. deposits play quickl                  │
│    750018 │ Customer#000750018 │ Kqi LH9Dw9Je4gnsZO…  │          10 │ 20-704-161-9994 │       7149.71 │ BUILDING     │ about the regular packages. unusual theodolite           │
│    750019 │ Customer#000750019 │ 6PIfDDv88ST          │          14 │ 24-501-337-3430 │       -862.69 │ BUILDING     │ unts sleep slyly furiously quick instructions. bold de…  │
│    750020 │ Customer#000750020 │ 3on7Dy7EbBtUQqW,x0…  │           3 │ 13-645-655-2278 │       7626.89 │ MACHINERY    │ ultipliers. blithely silent accounts wake? final, idle…  │
│       ·   │         ·          │       ·              │           · │        ·        │          ·    │     ·        │                            ·                             │
│       ·   │         ·          │       ·              │           · │        ·        │          ·    │     ·        │                            ·                             │
│       ·   │         ·          │       ·              │           · │        ·        │          ·    │     ·        │                            ·                             │
│    999981 │ Customer#000999981 │ 9eutWbkjGTH5m        │           4 │ 14-848-451-9506 │       7953.74 │ FURNITURE    │ olites. carefully bold asymptotes thrash quickly. iron…  │
│    999982 │ Customer#000999982 │ sz ANzNlyDdlc8ixCg…  │          19 │ 29-736-274-3793 │       4478.57 │ AUTOMOBILE   │ sts. furiously unusual warhorses about the ruthlessly …  │
│    999983 │ Customer#000999983 │ zbfrs38uKPsMgguyCz…  │           2 │ 12-387-349-8894 │       7309.38 │ HOUSEHOLD    │ . slyly regular packages hang furiously around the reg…  │
│    999984 │ Customer#000999984 │ Fe4XXlM V18,heYT4m…  │          18 │ 28-918-729-6761 │       9798.00 │ BUILDING     │  the regular, even multipliers. bold requests haggle. …  │
│    999985 │ Customer#000999985 │ PvTAz7jCnMYM8hLBBO…  │           5 │ 15-198-780-8836 │       3082.83 │ FURNITURE    │ refully even theodolites. quickly regular platelets al…  │
│    999986 │ Customer#000999986 │ 1,9tDkK2E0d          │           3 │ 13-541-887-2760 │       1178.81 │ FURNITURE    │  regular pinto beans. ironic,                            │
│    999987 │ Customer#000999987 │ fVI3FQ8ldRVZZEB      │           2 │ 12-782-312-1799 │       -872.56 │ HOUSEHOLD    │ s across the busy, express asymptotes might nag s        │
│    999988 │ Customer#000999988 │ Pp37em0JeuQ8pjGyDq…  │           1 │ 11-684-327-2906 │       6821.73 │ AUTOMOBILE   │ y special accounts detect blithely-- furiously quick a…  │
│    999989 │ Customer#000999989 │ mwrBAYS71focOVKEhR…  │          17 │ 27-975-600-5320 │       8906.00 │ FURNITURE    │ ts cajole slyly along the final platelets. special dep…  │
│    999990 │ Customer#000999990 │ z,bwOIBsI9K0PNY8NH…  │           3 │ 13-125-229-3250 │       4171.01 │ AUTOMOBILE   │ r pinto beans. furiously final requests boost at the f…  │
│    999991 │ Customer#000999991 │ AwaVWS8KtCTIX5NBLN…  │           2 │ 12-291-581-6412 │       8180.64 │ BUILDING     │ boldly final packages. accounts haggle carefully among…  │
│    999992 │ Customer#000999992 │ O0cD,1dzFiC I2 71B…  │          19 │ 29-698-569-2471 │       1029.41 │ AUTOMOBILE   │ nt requests. bold, ironic platelets wake carefully fin…  │
│    999993 │ Customer#000999993 │  WA2hj7UR,,aEgDHQ2…  │          20 │ 30-466-997-7763 │       7280.56 │ FURNITURE    │ as maintain along the slyly unusual instructions. expr…  │
│    999994 │ Customer#000999994 │ ADIbXr1UXCP          │           7 │ 17-225-458-5492 │       9451.18 │ BUILDING     │ p furiously? blithely special excuses use q              │
│    999995 │ Customer#000999995 │ DkonGLBdP8KiSw7M0n…  │          21 │ 31-676-126-3490 │       4073.85 │ MACHINERY    │ grate slyly. carefully even pla                          │
│    999996 │ Customer#000999996 │ VHzpweKyJnCKq ,ABa…  │           2 │ 12-612-481-1546 │       3249.83 │ HOUSEHOLD    │ atterns sublate furiously special ideas. furiously bol…  │
│    999997 │ Customer#000999997 │ 1jzKN7dkuARNY        │          13 │ 23-363-150-9331 │       2895.95 │ BUILDING     │ kages cajole furiously against the slowly regular acco…  │
│    999998 │ Customer#000999998 │ 66PbDOwGtRxtMdHysYS  │          18 │ 28-958-223-7036 │       6266.14 │ HOUSEHOLD    │ structions boost regular instruct                        │
│    999999 │ Customer#000999999 │ 44 qnTvzP0xE5mElCm…  │          22 │ 32-776-400-1528 │       -909.54 │ AUTOMOBILE   │ pending waters unwind blithely unusual frays. foxes da…  │
│   1000000 │ Customer#001000000 │ k3SvF5d6Nkp3jWKYQs…  │           8 │ 18-276-411-3390 │       1212.41 │ BUILDING     │ sual tithes boost. furiously unusual excuses wake furi…  │
├───────────┴────────────────────┴──────────────────────┴─────────────┴─────────────────┴───────────────┴──────────────┴──────────────────────────────────────────────────────────┤
│ 249999 rows (40 shown)                                                                                                                                                8 columns │
└─────────────────────────────────────────────────────────────────────────────────────────────────────────────────────────────────────────────────────────────────────────────────┘
```
…
