…
#### Expected behavior
Querying the Polars DataFrame should return the same results as querying the Parquet file or DuckDB table directly - rows where `x > 0.05` evaluates to `true`.

#### Actual behavior

Full output showing the discrepancy:

```
DuckDB table:
┌───────────────┬───────────┬─────────────────┐
│       x       │ is_x_good │ is_float_x_good │
│ decimal(18,4) │  boolean  │     boolean     │
├───────────────┼───────────┼─────────────────┤
│        0.0533 │ true      │ true            │
│        0.0714 │ true      │ true            │
│        0.0901 │ true      │ true            │
│        0.0968 │ true      │ true            │
│        0.1011 │ true      │ true            │
│        0.1395 │ true      │ true            │
│        0.1520 │ true      │ true            │
│        0.1867 │ true      │ true            │
│        0.2066 │ true      │ true            │
│        0.2126 │ true      │ true            │
│           ·   │  ·        │  ·              │
│           ·   │  ·        │  ·              │
│           ·   │  ·        │  ·              │
│        9.7783 │ true      │ true            │
│        9.8024 │ true      │ true            │
│        9.8033 │ true      │ true            │
│        9.8187 │ true      │ true            │
│        9.8965 │ true      │ true            │
│        9.9051 │ true      │ true            │
│        9.9246 │ true      │ true            │
│        9.9409 │ true      │ true            │
│        9.9615 │ true      │ true            │
│        9.9727 │ true      │ true            │
├───────────────┴───────────┴─────────────────┤
│ 495 rows (20 shown)               3 columns │
└─────────────────────────────────────────────┘

Parquet from DuckDB:
┌───────────────┬───────────┬─────────────────┐
│       x       │ is_x_good │ is_float_x_good │
│ decimal(18,4) │  boolean  │     boolean     │
├───────────────┼───────────┼─────────────────┤
│        0.0533 │ true      │ true            │
│        0.0714 │ true      │ true            │
│        0.0901 │ true      │ true            │
│        0.0968 │ true      │ true            │
│        0.1011 │ true      │ true            │
│        0.1395 │ true      │ true            │
│        0.1520 │ true      │ true            │
│        0.1867 │ true      │ true            │
│        0.2066 │ true      │ true            │
│        0.2126 │ true      │ true            │
│           ·   │  ·        │  ·              │
│           ·   │  ·        │  ·              │
│           ·   │  ·        │  ·              │
│        9.7783 │ true      │ true            │
│        9.8024 │ true      │ true            │
│        9.8033 │ true      │ true            │
│        9.8187 │ true      │ true            │
│        9.8965 │ true      │ true            │
│        9.9051 │ true      │ true            │
│        9.9246 │ true      │ true            │
│        9.9409 │ true      │ true            │
│        9.9615 │ true      │ true            │
│        9.9727 │ true      │ true            │
├───────────────┴───────────┴─────────────────┤
│ 495 rows (20 shown)               3 columns │
└─────────────────────────────────────────────┘

Polars df from DuckDB:
┌───────────────┬───────────┬─────────────────┐
│       x       │ is_x_good │ is_float_x_good │
│ decimal(18,4) │  boolean  │     boolean     │
├───────────────┼───────────┼─────────────────┤
│        0.0349 │ false     │ false           │  <- Should not appear
│        0.0404 │ false     │ false           │  <- Should not appear
│        0.0533 │ true      │ true            │
│        0.0714 │ true      │ true            │
│        0.0901 │ true      │ true            │
│        0.0968 │ true      │ true            │
│        0.1011 │ true      │ true            │
│        0.1395 │ true      │ true            │
│        0.1520 │ true      │ true            │
│        0.1867 │ true      │ true            │
│           ·   │  ·        │  ·              │
│           ·   │  ·        │  ·              │
│           ·   │  ·        │  ·              │
│        9.7783 │ true      │ true            │
│        9.8024 │ true      │ true            │
│        9.8033 │ true      │ true            │
│        9.8187 │ true      │ true            │
│        9.8965 │ true      │ true            │
│        9.9051 │ true      │ true            │
│        9.9246 │ true      │ true            │
│        9.9409 │ true      │ true            │
│        9.9615 │ true      │ true            │
│        9.9727 │ true      │ true            │
├───────────────┴───────────┴─────────────────┤
│ 497 rows (20 shown)               3 columns │
└─────────────────────────────────────────────┘

Polars df from DuckDB cte:
┌───────────────┬───────────┬─────────────────┐
│       x       │ is_x_good │ is_float_x_good │
│ decimal(18,4) │  boolean  │     boolean     │
├───────────────┼───────────┼─────────────────┤
│        0.0349 │ false     │ false           │  <- Should not appear
│        0.0404 │ false     │ false           │  <- Should not appear
│        0.0533 │ true      │ true            │
│        0.0714 │ true      │ true            │
│        0.0901 │ true      │ true            │
│        0.0968 │ true      │ true            │
│        0.1011 │ true      │ true            │
│        0.1395 │ true      │ true            │
│        0.1520 │ true      │ true            │
│        0.1867 │ true      │ true            │
│           ·   │  ·        │  ·              │
│           ·   │  ·        │  ·              │
│           ·   │  ·        │  ·              │
│        9.7783 │ true      │ true            │
│        9.8024 │ true      │ true            │
│        9.8033 │ true      │ true            │
│        9.8187 │ true      │ true            │
│        9.8965 │ true      │ true            │
│        9.9051 │ true      │ true            │
│        9.9246 │ true      │ true            │
│        9.9409 │ true      │ true            │
│        9.9615 │ true      │ true            │
│        9.9727 │ true      │ true            │
├───────────────┴───────────┴─────────────────┤
│ 497 rows (20 shown)               3 columns │
└─────────────────────────────────────────────┘
```
…
