…
2. delete some data, the db.file size is **170MB** and the table has more blocks.

```sql
delete from test where x % 10 = 7; 
select * from pragma_metadata_info();
```
```
┌──────────┬──────────────┬─────────────┬──────────────────────────────────────────────┐
│ block_id │ total_blocks │ free_blocks │                  free_list                   │
│  int64   │    int64     │    int64    │                   int64[]                    │
├──────────┼──────────────┼─────────────┼──────────────────────────────────────────────┤
│       34 │           64 │           8 │ [0, 1, 2, 3, 4, 5, 6, 7]                     │
│       36 │           64 │           0 │ []                                           │
│       37 │           64 │           0 │ []                                           │
│       38 │           64 │           0 │ []                                           │
│       39 │           64 │           0 │ []                                           │
│       40 │           64 │           0 │ []                                           │
│       41 │           64 │           0 │ []                                           │
│       42 │           64 │           0 │ []                                           │
│       43 │           64 │           0 │ []                                           │
│       44 │           64 │           0 │ []                                           │
│       45 │           64 │           0 │ []                                           │
│       46 │           64 │           0 │ []                                           │
│       47 │           64 │           0 │ []                                           │
│       48 │           64 │           0 │ []                                           │
│       49 │           64 │           0 │ []                                           │
│       50 │           64 │           0 │ []                                           │
│       51 │           64 │           0 │ []                                           │
│       52 │           64 │           0 │ []                                           │
│       53 │           64 │           0 │ []                                           │
│       54 │           64 │           0 │ []                                           │
│        · │            · │           · │ ·                                            │
│        · │            · │           · │ ·                                            │
│        · │            · │           · │ ·                                            │
│      658 │           64 │           0 │ []                                           │
│      659 │           64 │           0 │ []                                           │
│      660 │           64 │           0 │ []                                           │
│      661 │           64 │           0 │ []                                           │
│      662 │           64 │           0 │ []                                           │
│      663 │           64 │           0 │ []                                           │
│      664 │           64 │           0 │ []                                           │
│      665 │           64 │           0 │ []                                           │
│      666 │           64 │           0 │ []                                           │
│      667 │           64 │           0 │ []                                           │
│      668 │           64 │           0 │ []                                           │
│      669 │           64 │           0 │ []                                           │
│      670 │           64 │           0 │ []                                           │
│      671 │           64 │           0 │ []                                           │
│      672 │           64 │           0 │ []                                           │
│      673 │           64 │           0 │ []                                           │
│      674 │           64 │           0 │ []                                           │
│      675 │           64 │           0 │ []                                           │
│      676 │           64 │           0 │ []                                           │
│      677 │           64 │          11 │ [53, 54, 55, 56, 57, 58, 59, 60, 61, 62, 63] │
├──────────┴──────────────┴─────────────┴──────────────────────────────────────────────┤
│ 643 rows (40 shown)                                                        4 columns │
└──────────────────────────────────────────────────────────────────────────────────────┘
```
…
