…
DuckDB 1.0.0 will give an output that looks like this:

```
┌──────────────┬──────────┬─────────────────┐
│ creation_day │ category │ num_labeled_30d │
│     date     │ varchar  │      int64      │
├──────────────┼──────────┼─────────────────┤
│ 2023-11-25   │ 05       │               2 │
│ 2023-11-25   │ 3A       │               0 │
│ 2023-11-25   │ 09       │               0 │
│ 2023-11-25   │ 62       │               0 │
│ 2023-11-25   │ 32       │               1 │
│ 2023-11-25   │ 83       │               1 │
│ 2023-11-25   │ 92       │               0 │
│ 2023-11-25   │ 21       │               0 │
│ 2023-11-25   │ BA       │               2 │
│ 2023-11-25   │ 96       │               0 │
│ 2023-11-25   │ 6F       │               1 │
│ 2023-11-25   │ 64       │               0 │
│ 2023-11-25   │ 24       │               1 │
│ 2023-11-25   │ 14       │               0 │
│ 2023-11-25   │ 5D       │               0 │
│ 2023-11-25   │ 6A       │               0 │
│ 2023-11-25   │ 4D       │               0 │
│ 2023-11-25   │ B7       │               0 │
│ 2023-11-25   │ 9E       │               1 │
│ 2023-11-25   │ 1F       │               0 │
│     ·        │ ·        │               · │
│     ·        │ ·        │               · │
│     ·        │ ·        │               · │
│ 2021-09-07   │ 3F       │               1 │
│ 2021-09-07   │ 74       │               0 │
│ 2021-09-07   │ 06       │               0 │
│ 2021-09-07   │ 52       │               0 │
│ 2021-09-07   │ 2F       │               0 │
│ 2021-09-07   │ 8B       │               0 │
│ 2021-09-07   │ 17       │               0 │
│ 2021-09-07   │ 89       │               1 │
│ 2021-09-07   │ 39       │               1 │
│ 2021-09-07   │ 5A       │               1 │
│ 2021-09-07   │ 7E       │               0 │
│ 2021-09-07   │ 82       │               0 │
│ 2021-09-07   │ 7B       │               0 │
│ 2021-09-07   │ 90       │               0 │
│ 2021-09-08   │ 6D       │               1 │
│ 2021-09-08   │ A0       │               1 │
│ 2021-09-08   │ 67       │               2 │
│ 2021-09-08   │ 94       │               0 │
│ 2021-09-08   │ 61       │               0 │
│ 2021-09-08   │ 60       │               1 │
├──────────────┴──────────┴─────────────────┤
│ 393154 rows (40 shown)          3 columns │
└───────────────────────────────────────────┘
```
…
